[
   {
      "category_id":"19",
      "category_name":"Bags & Accessories",
      "subcat":[
         {
            "category_id":"24",
            "category_name":"Bags",
            "subcat":[
               {
                  "category_id":"25",
                  "category_name":"Bridal Bags"
               }
            ]
         },
         {
            "subcat":[
               {
                  "category_id":"26",
                  "category_name":"Casual Bags"
               }
            ]
         },
         {
            "subcat":[
               {
                  "category_id":"27",
                  "category_name":"Evening Bags"
               }
            ]
         },
         {
            "category_id":"852",
            "category_name":"Socks",
            "subcat":[
               {
                  "category_id":"874",
                  "category_name":"Women Socks"
               }
            ]
         },
         {
            "subcat":[
               {
                  "category_id":"873",
                  "category_name":"Mens Socks"
               }
            ]
         }
      }]
   },
   {
      "category_id":"247",
      "category_name":"Women's Shoes",
      "subcat":[
         {
            "category_id":"276",
            "category_name":"Fashion Trainers",
            "subcat":[
               {
                  "category_id":"277",
                  "category_name":"Lace-Ups"
               }
            ]
         },
         {
            "subcat":[
               {
                  "category_id":"278",
                  "category_name":"Slip-Ons"
               }
            ]
         },
         {
            "category_id":"285",
            "category_name":"Sandals",
            "subcat":[
               {
                  "category_id":"287",
                  "category_name":"Bridal"
               }
            ]
         },
         {
            "subcat":[
               {
                  "category_id":"674",
                  "category_name":"Block Heels"
               }
            ]
         },
         {
            "subcat":[
               {
                  "category_id":"675",
                  "category_name":"Comfort Sandals"
               }
            ]
         },
         {
            "subcat":[
               {
                  "category_id":"295",
                  "category_name":"Evening Sandals"
               }
            ]
         },
         {
            "subcat":[
               {
                  "category_id":"297",
                  "category_name":"Flats"
               }
            ]
         },
         {
            "subcat":[
               {
                  "category_id":"298",
                  "category_name":"Heels"
               }
            ]
         },
         {
            "subcat":[
               {
                  "category_id":"303",
                  "category_name":"Wedges"
               }
            ]
         },
         {
            "subcat":[
               {
                  "category_id":"863",
                  "category_name":"Casual Sandals"
               }
            ]
         },
         {
            "category_id":"304",
            "category_name":"Shoes",
            "subcat":[
               {
                  "category_id":"305",
                  "category_name":"Ballerinas"
               }
            ]
         },
         {
            "subcat":[
               {
                  "category_id":"306",
                  "category_name":"Casual Shoes"
               }
            ]
         },
         {
            "subcat":[
               {
                  "category_id":"307",
                  "category_name":"Courts"
               }
            ]
         },
         {
            "subcat":[
               {
                  "category_id":"308",
                  "category_name":"Evening Shoes"
               }
            ]
         },
         {
            "subcat":[
               {
                  "category_id":"309",
                  "category_name":"Indian Slippers (Khussa)"
               }
            ]
         },
         {
            "subcat":[
               {
                  "category_id":"580",
                  "category_name":"Moccasins"
               }
            ]
         },
         {
            "category_id":"313",
            "category_name":"Slippers",
            "subcat":[
               {
                  "category_id":"314",
                  "category_name":"Casual Slippers"
               }
            ]
         },
         {
            "subcat":[
               {
                  "category_id":"398",
                  "category_name":"Comfort"
               }
            ]
         },
         {
            "subcat":[
               {
                  "category_id":"315",
                  "category_name":"Evening Slippers"
               }
            ]
         },
         {
            "subcat":[
               {
                  "category_id":"316",
                  "category_name":"Flats"
               }
            ]
         },
         {
            "subcat":[
               {
                  "category_id":"322",
                  "category_name":"Wedges"
               }
            ]
         },
         {
            "subcat":[
               {
                  "category_id":"926",
                  "category_name":"Slip-on Moccasins"
               }
            ]
         },
         {
            "category_id":"765",
            "category_name":"Khussa",
            "subcat":[
               {
                  "category_id":"766",
                  "category_name":"Bridal Khussa"
               }
            ]
         },
         {
            "subcat":[
               {
                  "category_id":"767",
                  "category_name":"Casual khussa"
               }
            ]
         }
      ]
   },
   {
      "category_id":"105",
      "category_name":"Kids Shoes",
      "subcat1":[
         {
            "category_id":"122",
            "category_name":"Girls",
            "subcat":[
               {
                  "category_id":"127",
                  "category_name":"Shoes"
               }
            ]
         },
         {
            "subcat":[
               {
                  "category_id":"918",
                  "category_name":"Casual Shoes"
               }
            ]
         },
         {
            "category_id":"919",
            "category_name":"Boys",
            "subcat":[
               {
                  "category_id":"920",
                  "category_name":"Trainers"
               }
            ]
         },
         {
            "subcat":[
               {
                  "category_id":"927",
                  "category_name":"Shoes"
               }
            ]
         },
         {
            "subcat":[
               {
                  "category_id":"928",
                  "category_name":"Slip-Ons"
               }
            ]
         },
         {
            "subcat":[
               {
                  "category_id":"960",
                  "category_name":"Moccasins"
               }
            ]
         }
      ]
   },
   {
      "category_id":"174",
      "category_name":"Sale",
      "subcat1":[
         {
            "category_id":"197",
            "category_name":"Women's Shoes",
            "subcat":[
               {
                  "category_id":"200",
                  "category_name":"Sandals"
               }
            ]
         },
         {
            "subcat":[
               {
                  "category_id":"201",
                  "category_name":"Shoes"
               }
            ]
         },
         {
            "subcat":[
               {
                  "category_id":"202",
                  "category_name":"Slippers"
               }
            ]
         },
         {
            "subcat":[
               {
                  "category_id":"768",
                  "category_name":"Khussa"
               }
            ]
         },
         {
            "category_id":"189",
            "category_name":"Men's Shoes",
            "subcat":[
               {
                  "category_id":"350",
                  "category_name":"Shoes"
               }
            ]
         },
         {
            "subcat":[
               {
                  "category_id":"717",
                  "category_name":"Slippers"
               }
            ]
         },
         {
            "subcat":[
               {
                  "category_id":"718",
                  "category_name":"Sandals"
               }
            ]
         },
         {
            "category_id":"186",
            "category_name":"Kids Shoes",
            "subcat":[
               {
                  "category_id":"188",
                  "category_name":"Girls"
               }
            ]
         },
         {
            "category_id":"179",
            "category_name":"Bags & Accessories",
            "subcat":[
               {
                  "category_id":"180",
                  "category_name":"Bags"
               }
            ]
         },
         {
            "subcat":[
               {
                  "category_id":"859",
                  "category_name":"Socks"
               }
            ]
         }
      ]
   },
   {
      "category_id":"676",
      "category_name":"New In",
      "subcat1":[
         {
            "category_id":"677",
            "category_name":"Women's Shoes",
            "subcat":[
               {
                  "category_id":"695",
                  "category_name":"Sandals"
               }
            ]
         },
         {
            "subcat":[
               {
                  "category_id":"696",
                  "category_name":"Shoes"
               }
            ]
         },
         {
            "subcat":[
               {
                  "category_id":"697",
                  "category_name":"Slippers"
               }
            ]
         },
         {
            "subcat":[
               {
                  "category_id":"775",
                  "category_name":"Khussa"
               }
            ]
         },
         {
            "category_id":"678",
            "category_name":"Men's Shoes"
         }
      ]
   },
   {
      "category_id":"133",
      "category_name":"Men's Shoes",
      "subcat1":[
         {
            "category_id":"829",
            "category_name":"Boots",
            "subcat":[
               {
                  "category_id":"830",
                  "category_name":"Casual"
               }
            ]
         },
         {
            "subcat":[
               {
                  "category_id":"831",
                  "category_name":"Lace-Ups"
               }
            ]
         },
         {
            "subcat":[
               {
                  "category_id":"832",
                  "category_name":"Formal"
               }
            ]
         },
         {
            "subcat":[
               {
                  "category_id":"833",
                  "category_name":"Zip"
               }
            ]
         },
         {
            "category_id":"156",
            "category_name":"Sandals",
            "subcat":[
               {
                  "category_id":"157",
                  "category_name":"Casual Sandals"
               }
            ]
         },
         {
            "subcat":[
               {
                  "category_id":"384",
                  "category_name":"Peshawari"
               }
            ]
         },
         {
            "subcat":[
               {
                  "category_id":"884",
                  "category_name":"kaptaan chappal"
               }
            ]
         },
         {
            "category_id":"160",
            "category_name":"Shoes",
            "subcat":[
               {
                  "category_id":"161",
                  "category_name":"Casual"
               }
            ]
         },
         {
            "subcat":[
               {
                  "category_id":"162",
                  "category_name":"Formal"
               }
            ]
         },
         {
            "subcat":[
               {
                  "category_id":"164",
                  "category_name":"Lace-Ups"
               }
            ]
         },
         {
            "subcat":[
               {
                  "category_id":"166",
                  "category_name":"Slip-Ons"
               }
            ]
         },
         {
            "subcat":[
               {
                  "category_id":"378",
                  "category_name":"Moccasins"
               }
            ]
         },
         {
            "subcat":[
               {
                  "category_id":"821",
                  "category_name":"Extra Comfort"
               }
            ]
         },
         {
            "category_id":"167",
            "category_name":"Slippers",
            "subcat":[
               {
                  "category_id":"168",
                  "category_name":"Casual Slippers"
               }
            ]
         },
         {
            "subcat":[
               {
                  "category_id":"923",
                  "category_name":"Slip-on Moccasins"
               }
            ]
         },
         {
            "category_id":"433",
            "category_name":"Trainers",
            "subcat":[
               {
                  "category_id":"436",
                  "category_name":"Slip-Ons"
               }
            ]
         }
      ]
   }
]